<svg width="18" height="18" viewBox="0 0 18 18" fill="none" xmlns="http://www.w3.org/2000/svg">
<path opacity="0.5" fill-rule="evenodd" clip-rule="evenodd" d="M3.03995 1.39596C3.03932 1.67641 3.03871 1.94976 3.04125 2.22305C3.04263 2.37131 3.03167 2.52445 3.0207 2.67769C2.99487 3.03868 2.96899 3.40023 3.10428 3.69995C3.23223 3.98355 3.50909 4.20875 3.78778 4.43543C3.9287 4.55006 4.0701 4.66507 4.19294 4.7882C4.36272 4.95825 4.54502 5.01631 4.79339 5.01551C5.34701 5.01391 5.90067 5.01124 6.45434 5.00857C8.45603 4.99892 10.4578 4.98926 12.4583 5.03021C13.2765 5.04697 13.8474 4.83768 14.4004 4.29169C14.8185 3.87864 15.0415 3.49791 14.9936 2.92998C14.9563 2.48753 14.9649 2.04184 14.9736 1.59231C14.9775 1.39562 14.9813 1.1982 14.9813 1H11.7227V1.96662H10.6354V1.00499H7.36953V1.96409H6.27885V1.00984H3.04053C3.04053 1.14044 3.04024 1.26893 3.03995 1.39596ZM5.22377 6.98054H12.7874V6.0342H5.22377V6.98054ZM4.15661 14.9656H13.8782V14.008H4.15661V14.9656ZM14.9587 18H3.06224V16.0114H14.9587V18ZM5.2973 12.9773H12.7249L11.8234 8.01439H6.19801L5.2973 12.9773Z" fill="white"/>
</svg>
